…
    separate(mon, into = c("year","month","day"), convert = TRUE) |>
    mutate(
           president = ifelse(prez_gop == 1, "gop", "dem"),   
           month = factor(month, levels = 1:12, labels = month.abb)    #Month name
           ) |>
    select(year, month, president,
           starts_with("gov"),
           starts_with("sen"),
           starts_with("rep")) |>
    arrange(year, month)
#Result
polsmonth_df
```

    ## # A tibble: 822 × 9
    ##     year month president gov_gop gov_dem sen_gop sen_dem rep_gop rep_dem
    ##    <int> <fct> <chr>       <dbl>   <dbl>   <dbl>   <dbl>   <dbl>   <dbl>
    ##  1  1947 Jan   dem            23      23      51      45     253     198
    ##  2  1947 Feb   dem            23      23      51      45     253     198
    ##  3  1947 Mar   dem            23      23      51      45     253     198
    ##  4  1947 Apr   dem            23      23      51      45     253     198
    ##  5  1947 May   dem            23      23      51      45     253     198
    ##  6  1947 Jun   dem            23      23      51      45     253     198
    ##  7  1947 Jul   dem            23      23      51      45     253     198
    ##  8  1947 Aug   dem            23      23      51      45     253     198
    ##  9  1947 Sep   dem            23      23      51      45     253     198
    ## 10  1947 Oct   dem            23      23      51      45     253     198
    ## # ℹ 812 more rows
